{
    "antifeatures": {
        "Ads": "མཉེན་ཆས་འདིའི་ནང་ཁྱབ་བསྒྲགས་ཡོད།",
        "NonFreeAdd": "མཉེན་ཆས་འདི་རིན་མེད་མ་ཡིན་པའི་ཆ་རྐྱེན་འཕར་མ་རྒྱབ་སྐྱོར་བྱེད་ཀྱི་ཡོད།",
        "NonFreeAssets": "མཉེན་ཆས་འདིའི་ནང་རིན་མེད་མ་ཡིན་པའི་རྒྱུ་ཆ་ཡོད།",
        "NonFreeDep": "མཉེན་ཆས་འདི་རིན་མེད་མ་ཡིན་པའི་མཉེན་ཆས་གཞན་ལ་བརྟེན་ནས་ཡོད།",
        "NonFreeNet": "མཉེས་ཆས་འདིས་རིན་མེད་མ་ཡིན་པའི་དྲྭ་རྒྱའི་ཞབས་ཞུ་ཁྱབ་བསྒྲགས་བྱེད་ཀྱི་ཡོད།",
        "Tracking": "མཉེན་ཆས་འདིས་ཁྱེད་རང་རྗེས་འདེད་བཏང་ནས་ལས་ཀ་གང་བྱས་ཀྱང་བརྡ་ལན་སྤྲད་ཀྱི་རེད།",
        "UpstreamNonFree": "འབྱུང་ཁུངས་ཨང་རྟགས་འདི་ཆ་ཚང་རིན་མེད་མ་རེད།"
    },
    "app_categories": {
        "Connectivity": "མཐུད་མཚམས།",
        "Development": "ཡར་རྒྱས།",
        "Games": "རྩེད་རིགས།",
        "Graphics": "བརྐོས་རིས།",
        "Internet": "དྲྭ་རྒྱ།",
        "Money": "དངུལ།",
        "Multimedia": "བརྒྱུད་ལམ་སྣ་ཚོགས།",
        "Navigation": "ཕྱོགས་ཁྲིད།",
        "Phone & SMS": "ཁ་པར་དང་འཕྲིན་ཐུང་།",
        "Reading": "ཀློག་བཞིན་པ།",
        "Science & Education": "ཚན་རིག་དང་ཤེས་ཡོན།",
        "Security": "སྲུང་སྐྱོབ།",
        "Sports & Health": "རྩེད་རིགས་དང་འཕྲོད་བསྟེན།",
        "System": "མ་ལག",
        "Theming": "བརྗོད་གཞི་གླེང་བཞིན་པ།",
        "Time": "དུས་ཚོད།",
        "Writing": "འབྲི་བཞིན་པ།",
        "show_all_packages": "ཚང་མར་བལྟས། %d"
    },
    "index": {
        "download_fdroid": "ཨེཕ་རོཌ་ཕབ་ལེན་བྱེད།",
        "gpg_signature": "PGP མིང་རྟགས།",
        "introduction": "ཨེཕ་རོཌ་ནི་འགྲིག་བཅུག་བྱེད་ཐུབ་པའི་ ཕོས་(རིན་མེད་དང་ཕྱི་གསལ་ནང་གསལ་གྱི་ཨང་རྟགས་མཉེན་ཆས་) དང་ཨེན་ཀྲོཌ་བབས་སྟེགས་ཆེད་དུ་བཟོས་པའི་མཉེན་ཆས་ཤིག་རེད། མཉེན་ཆས་འདིས་ཁྱེད་རང་གི་ཡོ་བྱད་སྒང་ལ་ལྟ་བ་དང་། འགྲིག་བཅུག གསར་བསྒྱུར་བྱེད་དགོས་པ་རྣམས་རྗེས་དེད་གཏོང་བ་སོགས་དཀའ་ཚེགས་མེད་པའི་ཐོག་ནས་བྱེད་ཐུབ།",
        "screenshot": "ཨེཕ་རོཌ་ཨེན་ཀྲོཌ་མཉེན་ཆས་དྲྭ་ཤེལ་པར་ལེན།",
        "title": "ཨེཕ་རོཌ་ཟེར་ན་གང་རེད།"
    },
    "navigation": {
        "about": "སྐོར།",
        "apps": "ལྟ་བ།",
        "contribute": "མཐུན་འགྱུར།",
        "documentation": "ཡིག་ཆ།",
        "forum": "གླེང་སྟེགས།",
        "issues": "གནད་དོན།",
        "news": "གསར་འགྱུར།"
    },
    "package": {
        "anti_features_warning": "མཉེན་ཆས་འདིར་ཁྱེད་རང་གིས་དགའ་མོས་མེད་པའི་ཁྱད་ཆོས་ཀྱང་ཡོད་སྲིད།",
        "author": "རྩོམ་པ་པོ།",
        "build_metadata": "རྒྱབ་ལྗོངས་ཡིག་ཆ་བཟོ་སྐྲུན།",
        "changelog": "འགྱུརལྡོག་ཕྱིན་པའི་ཐོ་གཞུང་།",
        "donate": "ཞལ་འདེབས།",
        "download": "{{ file_extension }}ཕབ་ལེན་བྱས་ཟིན།",
        "flattr": "ཞལ་འདེབས་འབུལ་ཡུལ་ཕེ་ལེ་ཊར།",
        "gpg_signature": "PGP མིང་རྟགས།",
        "issue_tracker": "གནད་དོན་རྗེད་དེད་གཏོང་བ།",
        "license": "ཆོག་མཆན་ལག་ཁྱེར།",
        "minimum_android_version": "ཐོན་རིམ་འདི་ལ་ཨེན་ཀྲོཌ་དགོས། {{ android_version }} ཡང་ན་དེ་ལས་ཐོན་གསར་བ།",
        "new_in_version": "ཐོན་རིམ་གསར་པ། {{ latest_version }}",
        "packages": "ཐུམ་སྒྲིལ་ཁག",
        "permissions": "ཆོག་མཆན་ཁག",
        "signed_by_developer": "འདི་ནི་བཟོ་མཁན་ངོ་མས་བཟོས་པ་དང་མིང་རྟགས་བཀོད་ཡོད།",
        "signed_by_fdroid": "ཨེཕ་རོཌ་གིས་བཟོས་པ་དང་མིང་རྟགས་བཀོད་ཡོད།<a href=\"{{ source_code_url }}\"> 1this source tarball</a> 2.",
        "source_code": "འབྱུང་ཁུངས་་ཨང་རྟགས།",
        "suggest_downloading_via_fdroid": "APKཕབ་ལེན་བྱས་རྒྱུའི་གདམ་ཀ་སྤྲད་ཡོད་ནའང་འགྲིག་བཅུག་བྱེད་པའི་སྐབས་ལ་གསར་བསྒྱུར་ཡོད་པའི་བརྡ་ལན་སྤྲད་ཀྱི་མེད་པ་དེ་ཁྱེད་ཀྱིས་ཤེས་དགོས་པ་དང་། ཕབ་ལེན་འདི་ནི་བདེ་འཇགས་ཞན་པའང་ཡོད། དེ་འདྲ་སོང་ཙང་ང་ཚོས་ཁྱེད་རང་ཨེཕ་རོཌ་མཉེན་ཆས་འགྲིག་བཅུག་བྱས་ནས་བེད་སྤྱོད་བྱེད་རྒྱུར་ངོ་སྤྲོད་ཞུ་རྒྱུ་ཡིན།",
        "technical_info": "འཕྲུལ་ཆས་དང་འབྲེལ་བའི་གནད་དོན།",
        "version_info": "<b> 1ཐོན་རིམ་ {{ package_version }}</b> 2 ({{ package_version_code }})",
        "website": "དྲྭ་ཚིགས།"
    },
    "sidebars": {
        "donate": {
            "bank_transfer_name": "མིང་།",
            "bitcoin_alt": "Bitcoin དྲྭ་དངུལ་རྒྱུད་དེ་ཞལ་འདེབས་གནང་རོགས།",
            "flattr_alt": "Flattr རྒྱུད་དེ་ཞལ་འདེབས་གནང་རོགས།",
            "heading": "ཞལ་འདེབས།",
            "paypal_alt": "Paypal་རྒྱུད་དེ་ཞལ་འདེབས་གནང་རོགས།",
            "powered_by_donations": "ཁྱེད་རང་གི་ཞལ་འདེབས་ཀྱི་ནུས་པ་ལ་བརྟེན་ནས་ཨེཕ་རོཌ་གནས་ཡོད།!",
            "via_bank_transfer": "དངུལ་ཁང་རྒྱུད་དེ་གཏོང་བ།"
        },
        "last_updated": {
            "heading": "ཐ་མའི་གསར་བསྒྱུར།"
        },
        "latest_packages": {
            "heading": "མཉེན་ཆས་གསར་ཤོས་ཁག"
        },
        "news": {
            "heading": "གསར་འགྱུར་ཁག"
        },
        "search": {
            "heading": "མཉེན་ཆས་རྣམས་འཚོལ།",
            "noscript": "JavaScript སྒོ་ཕྱེས་དགོས།"
        }
    }
}
